%YAML 1.1
%TAG !u! tag:unity3d.com,2011:
--- !u!47 &1
QualitySettings:
  m_ObjectHideFlags: 0
  serializedVersion: 5
  m_CurrentQuality: 0
  m_QualitySettings:
  - serializedVersion: 2
    name: Ultra
    pixelLightCount: 4
    shadows: 2
    shadowResolution: 2
    shadowProjection: 0
    shadowCascades: 4
    shadowDistance: 150
    shadowNearPlaneOffset: 3
    shadowCascade2Split: 0.33333334
    shadowCascade4Split: {x: 0.02524639, y: 0.2118333, z: 0.47554114}
    shadowmaskMode: 1
    skinWeights: 4
    textureQuality: 0
    anisotropicTextures: 2
    antiAliasing: 4
    softParticles: 1
    softVegetation: 1
    realtimeReflectionProbes: 1
    billboardsFaceCameraPosition: 1
    vSyncCount: 1
    lodBias: 2
    maximumLODLevel: 0
    streamingMipmapsActive: 0
    streamingMipmapsAddAllCameras: 1
    streamingMipmapsMemoryBudget: 512
    streamingMipmapsRenderersPerFrame: 512
    streamingMipmapsMaxLevelReduction: 2
    streamingMipmapsMaxFileIORequests: 1024
    particleRaycastBudget: 4096
    asyncUploadTimeSlice: 2
    asyncUploadBufferSize: 4
    asyncUploadPersistentBuffer: 1
    resolutionScalingFixedDPIFactor: 1
    excludedTargetPlatforms: []
  m_PerPlatformDefaultQuality:
    Android: 0
    Nintendo 3DS: 0
    Nintendo Switch: 0
    PS4: 0
    PSP2: 0
    Standalone: 0
    Tizen: 0
    WebGL: 0
    WiiU: 0
    Windows Store Apps: 0
    XboxOne: 0
    iPhone: 0
    tvOS: 0
